…
```bash
$ ls -lah *.parquet
-rw-r--r-- 1 hum hum 134M Jan 26 23:21 test.parquet
```

duckdb で読み込んでみた

```bash
$ duckdb
v1.1.3 19864453f7
Enter ".help" for usage hints.
Connected to a transient in-memory database.
Use ".open FILENAME" to reopen on a persistent database.
D select * FROM 'test.parquet';
┌─────────────────────────┬─────────────┬──────────┐
│        timestamp        │    name     │  status  │
│        timestamp        │    blob     │  int32   │
├─────────────────────────┼─────────────┼──────────┤
│ 2025-01-26 14:21:52.166 │ test0       │      100 │
│ 2025-01-26 14:21:53.166 │ test1       │      101 │
│ 2025-01-26 14:21:54.166 │ test2       │      102 │
│ 2025-01-26 14:21:55.166 │ test3       │      103 │
│ 2025-01-26 14:21:56.166 │ test4       │      104 │
│ 2025-01-26 14:21:57.166 │ test5       │      105 │
│ 2025-01-26 14:21:58.166 │ test6       │      106 │
│ 2025-01-26 14:21:59.166 │ test7       │      107 │
│ 2025-01-26 14:22:00.166 │ test8       │      108 │
│ 2025-01-26 14:22:01.166 │ test9       │      109 │
│ 2025-01-26 14:22:02.166 │ test10      │      110 │
│ 2025-01-26 14:22:03.166 │ test11      │      111 │
│ 2025-01-26 14:22:04.166 │ test12      │      112 │
│ 2025-01-26 14:22:05.166 │ test13      │      113 │
│ 2025-01-26 14:22:06.166 │ test14      │      114 │
│ 2025-01-26 14:22:07.166 │ test15      │      115 │
│ 2025-01-26 14:22:08.166 │ test16      │      116 │
│ 2025-01-26 14:22:09.166 │ test17      │      117 │
│ 2025-01-26 14:22:10.166 │ test18      │      118 │
│ 2025-01-26 14:22:11.166 │ test19      │      119 │
│            ·            │   ·         │       ·  │
│            ·            │   ·         │       ·  │
│            ·            │   ·         │       ·  │
│ 2025-05-22 08:08:12.166 │ test9999980 │ 10000080 │
│ 2025-05-22 08:08:13.166 │ test9999981 │ 10000081 │
│ 2025-05-22 08:08:14.166 │ test9999982 │ 10000082 │
│ 2025-05-22 08:08:15.166 │ test9999983 │ 10000083 │
│ 2025-05-22 08:08:16.166 │ test9999984 │ 10000084 │
│ 2025-05-22 08:08:17.166 │ test9999985 │ 10000085 │
│ 2025-05-22 08:08:18.166 │ test9999986 │ 10000086 │
│ 2025-05-22 08:08:19.166 │ test9999987 │ 10000087 │
│ 2025-05-22 08:08:20.166 │ test9999988 │ 10000088 │
│ 2025-05-22 08:08:21.166 │ test9999989 │ 10000089 │
│ 2025-05-22 08:08:22.166 │ test9999990 │ 10000090 │
│ 2025-05-22 08:08:23.166 │ test9999991 │ 10000091 │
│ 2025-05-22 08:08:24.166 │ test9999992 │ 10000092 │
│ 2025-05-22 08:08:25.166 │ test9999993 │ 10000093 │
│ 2025-05-22 08:08:26.166 │ test9999994 │ 10000094 │
│ 2025-05-22 08:08:27.166 │ test9999995 │ 10000095 │
│ 2025-05-22 08:08:28.166 │ test9999996 │ 10000096 │
│ 2025-05-22 08:08:29.166 │ test9999997 │ 10000097 │
│ 2025-05-22 08:08:30.166 │ test9999998 │ 10000098 │
│ 2025-05-22 08:08:31.166 │ test9999999 │ 10000099 │
├─────────────────────────┴─────────────┴──────────┤
│ 10000000 rows (40 shown)               3 columns │
└──────────────────────────────────────────────────┘
…
